{
  "type": "service_account",
  "project_id": "upload-image-example-8923d",
  "private_key_id": "d5d4e2c397171667a8ba17dfa494b43dc3c9f0df",
  "private_key": "-----BEGIN PRIVATE KEY-----\nMIIEvwIBADANBgkqhkiG9w0BAQEFAASCBKkwggSlAgEAAoIBAQDQ7mImA9Tfd6yn\n171sUQ86qaiIWwoGlLPB44/JJUpyvZlN/cCtqAaqQ/yr8vGj927RK68n8qt6SaJV\nsrLzHmjZvp16+poN536yAqYVOV6DXTERE39+csXfwnoKQVHkTQ28Qqau65tduWKB\n2sZVd3x7GVphgUEQAfXDlWSAVxf7/5j+kQoxb8xdRIMUb1reXS0USlgf5Lixaaph\noJH+fLldxpT1LogpMhIT6iqohAJHezGKHc5fbV3vMhRz7kCBrpM86q/NLKoSv31q\n5N8BFCeywJfgZcyNCS/9sJcW/L540EHnapLOP47MGxnma9mYEz1dtx53m2e70bYs\nnIKu/FTjAgMBAAECggEAVmNa3dETwdqf3z6LKjBSFbV04/yQpqvxr6fCGi97Gvpe\nWysi8irZpqk53nczhtKWVZK0d9YVJRkxMDIVYAUg4Xe5cdIQxNMFReFmfrwb4kE0\nOpVPUB9wxdaJ05eynq1lkoQUm5r7wMMYggzNmSUwqU2QW2SwXEgTMG2jApYAasdC\n3sYbfOydYZjuHUiAJZYlLUbzEog7lZISU8bD9qbDXTr83Sh8Ifnw58Rcam+s8loJ\neSyB+V/BgfPDep8LZmtWRY70QR+YZ6g/D2r1lQBEnKmklz57V4u4zaVYXs3o9z4Q\nMw99D7fulGY5wZ8DwySAAv1hjDQyMw5mR9BkpXy38QKBgQD4vLHdZnHFEOlsynSC\nrgMTIU3zFl72fM9nc6PwI8LUrSnHHR0x0Ai4PRziBexsGzUtW4LUPbzdzo8KAcXF\nuHzFv5IcnZfXgkuc7Lzd/Z+xgWXI+SClUx61tPQXnB8iSQpwgj3uRXp9aMyk5F0S\nXlrai2Siwxc7gKBBqXuxbo00ZQKBgQDXCCPkMOOETS8pDJE68vFEoxSTgN2xJU0n\niMJiIRAlYmLuADl07xZ3lOLlrX5K+Rkk0fKPgv+CK7wZoiUY6wcE76oRdM/Qs2au\njuCrEDXGFp3j7KnuKjk55eX9aNtOohfJfJs6+pSGgtVmNxZEJ1VjL3VWmbn67Ie7\nr3KziC6bpwKBgQDgFB2n9sJHZhTjjP+pOlpKwZYXh+/E3mt6JxNpIs5CCj24wuGq\nHl+8mlGKzQtP2LLvSaFy0qtypsL1oOMqXCkLfKmEXfSMkTTNCfibhAB5SLkJdGWU\nim0ABSRgoKTrniFpeeuQ28adc+voIFI4Wgg/GZRvjJFBaX71qFlmXtGWgQKBgQCO\nKmqYVp5FfUY9zHpEUBSlfXCAKQXpNbEx/yANArELFmYz1mAmaGAhRYVRtoe2B8TQ\n7CGDMme9Zy7gf6wpMlIcuFtnWSSAZevwYrQ1RO1YfuF6rKCYvr/BALcy+F1uOoqh\ngsmaj8sct2lhP/BvtNWmUt0wGUi1liYTN2cNPW8bJwKBgQDsFmkHITFAuqtdEOKC\nOgaYhcBshKf2TtmXjoHBgAHVR7S5SKwkhdY1ItoGVonzIKOt2/9gsI+l9IEgIwbH\nEicCg+T9L565qIdrhGpZPZxOCsulZtE8rAdUed9TarrxD7GjuT+j38nrC4K904/6\nnngnCX8rWthIfM/4Jt+s8QP1dg==\n-----END PRIVATE KEY-----\n",
  "client_email": "firebase-adminsdk-1h2vi@upload-image-example-8923d.iam.gserviceaccount.com",
  "client_id": "118260513552425837869",
  "auth_uri": "https://accounts.google.com/o/oauth2/auth",
  "token_uri": "https://oauth2.googleapis.com/token",
  "auth_provider_x509_cert_url": "https://www.googleapis.com/oauth2/v1/certs",
  "client_x509_cert_url": "https://www.googleapis.com/robot/v1/metadata/x509/firebase-adminsdk-1h2vi%40upload-image-example-8923d.iam.gserviceaccount.com"
}
